<?xml version="1.0"?>
<robot xmlns:sensor="http://playerstage.sourceforge.net/gazebo/xmlschema/#sensor"
       xmlns:controller="http://playerstage.sourceforge.net/gazebo/xmlschema/#controller"
       xmlns:interface="http://playerstage.sourceforge.net/gazebo/xmlschema/#interface"
       xmlns:xacro="http://ros.org/wiki/xacro"
name="pioneer3at"
>

<xacro:property name="base_length" value="0.40"/>
<xacro:property name="base_width" value="0.26"/>
<xacro:property name="base_height" value="0.193"/>
<xacro:property name="base_height_from_earth" value="0.261"/>
<xacro:property name="bar_width" value="0.03"/>
<xacro:property name="vertical_bar_height" value="1.33"/>

<!-- Chassis -->
    <link name="base_link">
        <inertial>
            <mass value="10.0"/>
            <origin xyz="0 0 0.177"/>
            <inertia ixx="0.3338" ixy="0.0" ixz="0.0"
                 iyy="0.4783" iyz="0.0"
                 izz="0.3338"/>
        </inertial>
        <visual name="base_visual">
            <origin xyz="0 0 0.177" rpy="0 0 0"/>
            <geometry name="pioneer_geom">
                <mesh filename="package://social_navigation/meshes/p3at_meshes/chassis.dae"/>
            </geometry>
            <material name="ChassisRed">
                <color rgba="0.851 0.0 0.0 1.0"/>
            </material>
        </visual>
        <collision>
            <origin xyz="0 0 0.177" rpy="0 0 0"/>
                <geometry>
                    <mesh filename="package://social_navigation/meshes/p3at_meshes/chassis.dae"/>
                </geometry>
        </collision>
    </link>
    <gazebo reference="base_link">
        <material value="Gazebo/Red"/>
    </gazebo>

<!--link name="odom">
</link>
<joint name="odom_base" type="floating">
        <origin xyz="0 0 0" rpy="0 0 0"/>
        <parent link="odom"/>
        <child link="base_link"/>
    </joint-->
<!--<link name="map">
</link-->
<!--<joint name="map_odom" type="fixed">
        <origin xyz="0 0 0" rpy="0 0 0"/>
        <parent link="map"/>
        <child link="odom"/>
    </joint>
    -->
<!-- Top -->
    <link name="top_plate">
        <inertial>
            <mass value="0.1"/>
            <origin xyz="-0.025 0 -0.223"/>
            <inertia ixx="1.0" ixy="0.0" ixz="0.0"
                 iyy="1.0" iyz="0.0"
                izz="1.0"/>
        </inertial>
        <visual name="base_visual">
            <origin xyz="0 0 0" rpy="0 0 0"/>
            <geometry name="pioneer_geom">
                <mesh filename="package://social_navigation/meshes/p3at_meshes/top.dae"/>
            </geometry>
            <material name="TopBlack">
                    <color rgba="0.038 0.038 0.038 1.0"/>
            </material>
        </visual>
        <collision>
            <origin xyz="0 0 0" rpy="0 0 0"/>
            <geometry>
                <box size="0.01 0.01 0.01"/>
            </geometry>
        </collision>
    </link>
    <gazebo reference="top_plate">
        <material value="Gazebo/Black"/>
    </gazebo>

    <joint name="base_top_joint" type="fixed">
        <origin xyz="0.003 0 0.274" rpy="0 0 0"/>
        <parent link="base_link"/>
        <child link="top_plate"/>
    </joint>





<!-- Front + Back Sonar -->
    <link name="front_sonar">
        <inertial>
            <mass value="0.1"/>
            <origin xyz="0 0 0"/>
            <inertia ixx="1.0" ixy="0.0" ixz="0.0"
                 iyy="1.0" iyz="0.0" izz="1.0"/>
        </inertial>
        <visual name="base_visual">
            <origin xyz="0 0 0" rpy="0 0 0"/>
            <geometry name="pioneer_geom">
                <mesh filename="package://social_navigation/meshes/p3at_meshes/front_sonar.dae"/>
            </geometry>
            <material name="SonarYellow">
                <color rgba="0.715 0.583 0.210 1.0"/>
            </material>
        </visual>
        <collision>
            <origin xyz="0 0 0" rpy="0 0 0"/>
            <geometry>
                <box size="0.01 0.01 0.01"/>
            </geometry>
        </collision>
    </link>
    <gazebo reference="front_sonar">
        <material value="Gazebo/Yellow"/>
    </gazebo>

    <joint name="base_front_joint" type="fixed">
        <origin xyz="0.193 0 0.25" rpy="0 0 0"/>
        <parent link="base_link"/>
        <child link="front_sonar"/>
    </joint>

    <link name="back_sonar">
        <inertial>
            <mass value="0.1"/>
            <origin xyz="0 0 0"/>
            <inertia ixx="1.0" ixy="0.0" ixz="0.0"
                 iyy="1.0" iyz="0.0" izz="1.0"/>
        </inertial>
        <visual name="base_visual">
            <origin xyz="0 0 0" rpy="0 0 0"/>
            <geometry name="pioneer_geom">
                <mesh filename="package://social_navigation/meshes/p3at_meshes/back_sonar.dae"/>
            </geometry>
            <material name="SonarYellow">
                <color rgba="0.715 0.583 0.210 1.0"/>
            </material>
        </visual>
        <collision>
            <origin xyz="0 0 0" rpy="0 0 0"/>
            <geometry>
                <box size="0.01 0.01 0.01"/>
            </geometry>
        </collision>
    </link>
    <gazebo reference="back_sonar">
        <material value="Gazebo/Yellow"/>
    </gazebo>

    <joint name="base_back_joint" type="fixed">
        <origin xyz="-0.187 0 0.247" rpy="0 0 0"/>
        <parent link="base_link"/>
        <child link="back_sonar"/>
    </joint>

<link name="back_sonar_fake">
    <inertial>
            <mass value="0.1"/>
            <origin xyz="0 0 0"/>
            <inertia ixx="1.0" ixy="0.0" ixz="0.0"
                 iyy="1.0" iyz="0.0" izz="1.0"/>
    </inertial>
<!--     <visual name="base_visual">
            <origin xyz="0 0 0" rpy="0 0 0"/>
            <geometry name="pioneer_geom">
                <mesh filename="package://social_navigation/meshes/p3at_meshes/back_sonar.dae"/>
            </geometry>
            <material name="SonarYellow">
                <color rgba="0.715 0.583 0.210 1.0"/>
            </material>
        </visual>
        <collision>
            <origin xyz="0 0 0" rpy="0 0 0"/>
            <geometry>
                <box size="0.01 0.01 0.01"/>
            </geometry>
        </collision> -->
</link>

<joint name="base_back_sonar_joint" type="fixed">
    <origin xyz="0 0 0" rpy="0 0 3.1415"/>
    <parent link="back_sonar"/>
    <child link="back_sonar_fake"/>
</joint>

<link name="imu">
    <inertial>
            <mass value="0.1"/>
            <origin xyz="0 0 0"/>
            <inertia ixx="1.0" ixy="0.0" ixz="0.0"
                 iyy="1.0" iyz="0.0" izz="1.0"/>
    </inertial>
<!--     <visual name="base_visual">
            <origin xyz="0 0 0" rpy="0 0 0"/>
            <geometry name="pioneer_geom">
                <mesh filename="package://social_navigation/meshes/p3at_meshes/back_sonar.dae"/>
            </geometry>
            <material name="SonarYellow">
                <color rgba="0.715 0.583 0.210 1.0"/>
            </material>
        </visual>
        <collision>
            <origin xyz="0 0 0" rpy="0 0 0"/>
            <geometry>
                <box size="0.01 0.01 0.01"/>
            </geometry>
        </collision> -->
</link>

<joint name="imu_joint" type="fixed">
    <origin xyz="0 0 0" rpy="3.1415 0 0"/>
    <parent link="base_link"/>
    <child link="imu"/>
</joint>

<!-- Front Axles + Wheels + Hubcaps -->
<xacro:macro name="p3at_front" params="suffix reflect">
    <link name="p3at_front_${suffix}_axle">
        <inertial>
            <mass value="0.1"/>
            <origin xyz="0 0 0"/>
            <inertia ixx="1.0" ixy="0.0" ixz="0.0"
                 iyy="1.0" iyz="0.0" izz="1.0"/>
        </inertial>
    <visual name="base_visual">
        <origin xyz="0 0 0" rpy="0 0 0"/>
        <geometry name="pioneer_geom">
            <mesh filename="package://social_navigation/meshes/p3at_meshes/axle.dae"/>
        </geometry>
        <material name="AxleGrey">
            <color rgba="0.5 0.5 0.5 1"/>
        </material>
    </visual>
    <collision>
        <origin xyz="0 0 0" rpy="0 0 0"/>
        <geometry>
            <box size="0.01 0.01 0.01"/>
        </geometry>
    </collision>
    </link>
    <gazebo reference="p3at_front_${suffix}_axle">
        <material value="Gazebo/Grey"/>
    </gazebo>

    <joint name="base_front_${suffix}_axle_joint" type="fixed">
        <origin xyz="0.135 ${reflect*0.156} 0.111" rpy="0 0 0"/>
        <parent link="base_link"/>
        <child link="p3at_front_${suffix}_axle"/>
    </joint>

    <link name="p3at_front_${suffix}_hub">
        <inertial>
            <mass value="0.1"/>
            <origin xyz="0 0 0"/>
            <inertia ixx="1.0" ixy="0.0" ixz="0.0"
                 iyy="1.0" iyz="0.0" izz="1.0"/>
        </inertial>
    <visual name="base_visual">
        <origin xyz="0 0 0" rpy="0 0 0"/>
        <geometry name="pioneer_geom">
            <mesh filename="package://social_navigation/meshes/p3at_meshes/${suffix}_hubcap.dae"/>
        </geometry>
        <material name="HubcapYellow">
            <color rgba="1.0 0.811 0.151 1.0"/>
        </material>
    </visual>
    <collision>
        <origin xyz="0 0 0" rpy="0 0 0"/>
        <geometry>
            <box size="0.01 0.01 0.01"/>
        </geometry>
    </collision>
    </link>
    <gazebo reference="p3at_front_${suffix}_hub">
        <material value="Gazebo/Yellow"/>
    </gazebo>

    <joint name="base_front_${suffix}_hub_joint" type="fixed">
        <origin xyz="0 ${reflect*0.041} 0" rpy="0 0 0"/>
        <parent link="p3at_front_${suffix}_axle"/>
        <child link="p3at_front_${suffix}_hub"/>
    </joint>

    <link name="p3at_front_${suffix}_wheel">
        <inertial>
            <mass value="0.5"/>
            <origin xyz="0 0 0"/>
            <inertia ixx="0.012411765597" ixy="0" ixz="0"
         iyy="0.015218160428" iyz="0" izz="0.011763977943"/>
      </inertial>
    <visual name="base_visual">
        <origin xyz="0 0 0" rpy="0 0 0"/>
        <geometry name="pioneer_geom">
            <mesh filename="package://social_navigation/meshes/p3at_meshes/wheel.dae"/>
        </geometry>
        <material name="WheelBlack">
            <color rgba="0.117 0.117 0.117 1"/>
        </material>
    </visual>
    <collision>
        <origin xyz="0 0 0" rpy="${-3.1415927/2} 0 0"/>
        <geometry>
        <!--mesh filename="package://social_navigation/meshes/p3at_meshes/wheel.dae"/-->
        <cylinder radius="0.111" length="0.075"/>
        </geometry>
    </collision>
    </link>
    <gazebo reference="p3at_front_${suffix}_wheel">
        <material value="Gazebo/Black"/>
    </gazebo>

    <joint name="p3at_front_${suffix}_wheel_joint" type="continuous">
    <axis xyz="0 1 0"/>
        <anchor xyz="0 0 0"/>
    <origin xyz="0 0 0" rpy="0 0 0"/>
    <parent link="p3at_front_${suffix}_hub"/>
    <child link="p3at_front_${suffix}_wheel"/>

        <limit effort="100" velocity="100" />
        <joint_properties damping="0.7"/>
    </joint>

<!-- Back Axles + Wheels + Hubcaps -->
    <link name="p3at_back_${suffix}_axle">
        <inertial>
            <mass value="0.1"/>
            <origin xyz="0 0 0"/>
            <inertia ixx="1.0" ixy="0.0" ixz="0.0"
                 iyy="1.0" iyz="0.0" izz="1.0"/>
        </inertial>
    <visual name="base_visual">
        <origin xyz="0 0 0" rpy="0 0 0"/>
        <geometry name="pioneer_geom">
            <mesh filename="package://social_navigation/meshes/p3at_meshes/axle.dae"/>
        </geometry>
        <material name="AxleGrey">
            <color rgba="0.5 0.5 0.5 1"/>
        </material>
    </visual>
    <collision>
        <origin xyz="0 0 0" rpy="0 0 0"/>
        <geometry>
            <mesh filename="package://social_navigation/meshes/p3at_meshes/axle.dae"/>
        </geometry>
    </collision>
    </link>
    <gazebo reference="p3at_back_${suffix}_axle">
        <material value="Gazebo/Grey"/>
    </gazebo>

    <joint name="p3at_back_${suffix}_axle_joint" type="fixed">
        <origin xyz="-0.134 ${reflect*0.156} 0.111" rpy="0 0 0"/>
        <parent link="base_link"/>
        <child link="p3at_back_${suffix}_axle"/>
    </joint>


    <link name="p3at_back_${suffix}_hub">
        <inertial>
            <mass value="0.1"/>
            <origin xyz="0 0 0"/>
            <inertia ixx="1.0" ixy="0.0" ixz="0.0"
                 iyy="1.0" iyz="0.0" izz="1.0"/>
        </inertial>
    <visual name="base_visual">
        <origin xyz="0 0 0" rpy="0 0 0"/>
        <geometry name="pioneer_geom">
            <mesh filename="package://social_navigation/meshes/p3at_meshes/${suffix}_hubcap.dae"/>
        </geometry>
        <material name="HubcapYellow"/>
    </visual>
    <collision>
        <origin xyz="0 0 0" rpy="0 0 0"/>
        <geometry>
            <mesh filename="package://social_navigation/meshes/p3at_meshes/${suffix}_hubcap.dae"/>
        </geometry>
    </collision>
    </link>
    <gazebo reference="p3at_back_${suffix}_hub">
        <material value="Gazebo/Yellow"/>
    </gazebo>

    <joint name="p3at_back_${suffix}_hub_joint" type="fixed">
        <origin xyz="-0 ${reflect*0.041} 0" rpy="0 0 0"/>
        <parent link="p3at_back_${suffix}_axle"/>
        <child link="p3at_back_${suffix}_hub"/>
    </joint>

    <link name="p3at_back_${suffix}_wheel">
        <inertial>
            <mass value="0.5"/>
            <origin xyz="0 0 0"/>
            <inertia ixx="0.012411765597" ixy="0" ixz="0"
         iyy="0.015218160428" iyz="0" izz="0.011763977943"/>
      </inertial>
    <visual name="base_visual">
        <origin xyz="0 0 0" rpy="0 0 0"/>
        <geometry name="pioneer_geom">
            <mesh filename="package://social_navigation/meshes/p3at_meshes/wheel.dae"/>
        </geometry>
        <material name="WheelBlack"/>
    </visual>
    <collision>
        <origin xyz="0 0 0" rpy="${-3.1415927/2} 0 0"/>
        <geometry>
        <!--mesh filename="package://social_navigation/meshes/p3at_meshes/wheel.dae"/-->
        <cylinder radius="0.111" length="0.075"/>
        </geometry>
    </collision>
    </link>
    <gazebo reference="p3at_back_${suffix}_wheel">
        <material value="Gazebo/Black"/>
    </gazebo>



    <joint name="p3at_back_${suffix}_wheel_joint" type="continuous">
      <axis xyz="0 1 0"/>
          <anchor xyz="0 0 0"/>
          <limit effort="100" velocity="100" />
          <joint_properties damping="0.7"/>
        <origin xyz="0 0 0" rpy="0 0 0"/>
        <parent link="p3at_back_${suffix}_hub"/>
        <child link="p3at_back_${suffix}_wheel"/>
    </joint>


  <gazebo reference="p3at_back_${suffix}_wheel">
    <kp>1000000.0</kp> <!-- kp and kd for rubber -->
    <kd>100.0</kd>
    <mu1>1.0</mu1>
    <mu2>1.0</mu2>
    <fdir1>1 0 0</fdir1> <!-- is this correct? -->
    <maxVel>1.0</maxVel>
    <minDepth>0.00</minDepth>
  </gazebo>

  <gazebo reference="p3at_front_${suffix}_wheel">
    <kp>1000000.0</kp> <!-- kp and kd for rubber -->
    <kd>100.0</kd>
    <mu1>1.0</mu1>
    <mu2>1.0</mu2>
    <fdir1>1 0 0</fdir1> <!-- is this correct? -->
    <maxVel>1.0</maxVel>
    <minDepth>0.00</minDepth>
  </gazebo>

</xacro:macro>


<xacro:macro name="p3at_gazebo_ext">

<gazebo>
  <plugin name="skid_steer_drive_controller" filename="libgazebo_ros_skid_steer_drive.so">
    <updateRate>50000.0</updateRate>
    <robotNamespace>/</robotNamespace>
    <leftFrontJoint>p3at_front_left_wheel_joint</leftFrontJoint>
    <rightFrontJoint>p3at_front_right_wheel_joint</rightFrontJoint>
    <leftRearJoint>p3at_back_left_wheel_joint</leftRearJoint>
    <rightRearJoint>p3at_back_right_wheel_joint</rightRearJoint>
    <wheelSeparation>0.4</wheelSeparation>
    <wheelDiameter>0.215</wheelDiameter>
    <robotBaseFrame>base_link</robotBaseFrame>
    <torque>200</torque>
    <commandTopic>cmd_vel</commandTopic>
    <odometryTopic>odom</odometryTopic>
    <odometryFrame>odom</odometryFrame>
    <broadcastTF>1</broadcastTF>
  </plugin>
</gazebo>

<joint name="hokuyo_joint" type="fixed">
    <axis xyz="0 1 0" />
    <origin xyz="0.150 0 0.037" rpy="0 0 0"/>
    <parent link="top_plate"/>
    <child link="hokuyo_link"/>
</joint>

  <!-- Hokuyo Laser -->
  <link name="hokuyo_link">
    <collision>
      <origin xyz="0 0 0" rpy="0 0 0"/>
      <geometry>
    <box size="0.01 0.01 0.01"/>
      </geometry>
    </collision>
    <visual>
      <origin xyz="0 0 0" rpy="0 0 0"/>
      <geometry>
     <!--   <mesh filename="package://social_navigation/meshes/sick_lms100.dae"/> -->
            <mesh filename="package://social_navigation/meshes/hokuyo1.dae"/>
      </geometry>
    </visual>
    <inertial>
      <mass value="1e-5" />
      <origin xyz="0 0 0" rpy="0 0 0"/>
      <inertia ixx="1e-6" ixy="0" ixz="0" iyy="1e-6" iyz="0" izz="1e-6" />
    </inertial>
  </link>
<gazebo reference="hokuyo_link">
    <sensor type="ray" name="head_hokuyo_sensor">
      <pose>0 0 0 0 0 0</pose>
      <visualize>true</visualize>
      <update_rate>40</update_rate>
      <ray>
        <scan>
          <horizontal>
            <samples>1080</samples>
            <resolution>1</resolution>
            <min_angle>-2.3559777</min_angle>
            <max_angle>2.3559777</max_angle>
          </horizontal>
        </scan>
        <range>
          <min>0.10</min>
          <max>30.0</max>
          <resolution>0.01</resolution>
        </range>
        <noise>
          <type>gaussian</type>
          <!-- Noise parameters based on published spec for Hokuyo laser
               achieving "+-30mm" accuracy at range < 10m.  A mean of 0.0m and
               stddev of 0.01m will put 99.7% of samples within 0.03m of the true
               reading. -->
          <mean>0.0</mean>
          <stddev>0.01</stddev>
        </noise>
      </ray>
      <plugin name="gazebo_ros_head_hokuyo_controller" filename="libgazebo_ros_laser.so">
        <topicName>/hokuyo_scan</topicName>
        <frameName>hokuyo_link</frameName>
      </plugin>
    </sensor>
</gazebo>

<gazebo reference="front_sonar">
    <sensor type="ray" name="front_sonar_sensor">
      <pose>0 0 0 0 0 0</pose>
      <visualize>false</visualize>
      <update_rate>25</update_rate>
      <ray>
        <scan>
          <horizontal>
            <samples>8</samples>
            <resolution>1</resolution>
            <min_angle>-1.570796</min_angle>
            <max_angle>1.570796</max_angle>
<!--             <samples>16</samples>
            <resolution>1</resolution>
            <min_angle>-1.919862</min_angle>
            <max_angle>1.919862</max_angle> -->
          </horizontal>
        </scan>
        <range>
          <min>0.10</min>
          <max>5.0</max>
          <resolution>0.1</resolution>
        </range>
        <noise>
          <type>gaussian</type>
          <!-- Noise parameters based on published spec for Hokuyo laser
               achieving "+-30mm" accuracy at range < 10m.  A mean of 0.0m and
               stddev of 0.01m will put 99.7% of samples within 0.03m of the true
               reading. -->
          <mean>0.0</mean>
          <stddev>0.1</stddev>
        </noise>
      </ray>
      <plugin name="gazebo_ros_front_sonar_controller" filename="libgazebo_ros_laser.so">
        <topicName>/front_sonar_raw</topicName>
        <frameName>front_sonar</frameName>
      </plugin>
    </sensor>
</gazebo>

<gazebo reference="back_sonar_fake">
    <sensor type="ray" name="back_sonar_sensor">
      <pose>0 0 0 0 0 0</pose>
      <visualize>false</visualize>
      <update_rate>25</update_rate>
      <ray>
        <scan>
          <horizontal>
            <samples>8</samples>
            <resolution>1</resolution>
            <min_angle>-1.570796</min_angle>
            <max_angle>1.570796</max_angle>
<!--             <samples>16</samples>
            <resolution>1</resolution>
            <min_angle>-1.919862</min_angle>
            <max_angle>1.919862</max_angle> -->
          </horizontal>
        </scan>
        <range>
          <min>0.10</min>
          <max>5.0</max>
          <resolution>0.1</resolution>
        </range>
        <noise>
          <type>gaussian</type>
          <!-- Noise parameters based on published spec for Hokuyo laser
               achieving "+-30mm" accuracy at range < 10m.  A mean of 0.0m and
               stddev of 0.01m will put 99.7% of samples within 0.03m of the true
               reading. -->
          <mean>0.0</mean>
          <stddev>0.1</stddev>
        </noise>
      </ray>
      <plugin name="gazebo_ros_back_sonar_controller" filename="libgazebo_ros_laser.so">
        <topicName>/back_sonar_raw</topicName>
        <frameName>back_sonar_fake</frameName>
      </plugin>
    </sensor>
</gazebo>

<gazebo>
    <plugin name="imu_controller" filename="libhector_gazebo_ros_imu.so">
        <robotNamespace>/</robotNamespace>
        <updateRate>50.0</updateRate>
        <bodyName>imu</bodyName>
        <topicName>imu/data_raw</topicName>
        <accelDrift>0.05 0.05 0.05</accelDrift>
        <accelGaussianNoise>0.05 0.05 0.05</accelGaussianNoise>
        <rateDrift>0.05 0.05 0.05 </rateDrift>
        <rateGaussianNoise>0.05 0.05 0.05 </rateGaussianNoise>
        <headingDrift>0.05</headingDrift>
        <headingGaussianNoise>0.05</headingGaussianNoise>
    </plugin>
</gazebo>

<!-- P3AT_URDF LASER
<link name="laser_scan_link" type="laser">
                <inertial>
                        <mass value="0.5" />
                        <origin xyz="0 0 0" />
                        <inertia ixx="0.3"  ixy="0.3"  ixz="0.3" iyy="0.3"  iyz="0.3"  izz="0.3" />
                </inertial>
                <visual>
                        <origin xyz="0 0 0" rpy="0 0 0"/>
                        <geometry>
                                <mesh filename="package://social_navigation/meshes/p3at_alt_meshes/hokuyo.dae"/>
                        </geometry>
                </visual>
                <collision>
                        <origin xyz="0 0 0" rpy="0 0 0"/>
                        <geometry>
                                <mesh filename="package://social_navigation/meshes/p3at_alt_meshes/hokuyo.dae"/>
                        </geometry>
                </collision>
        </link>

        <joint name="laser_to_base_link" type="fixed">
                <origin xyz="0.25 0 0.32" rpy="0 0 0" />
                <parent link="base_link" />
                <child link="laser_scan_link"/>
        </joint>

        <gazebo reference="laser_scan_link">
        <sensor type="ray" name="head_hokuyo_sensor">
                <pose>0 0 0 0 0 0</pose>
                <visualize>false</visualize>
                <update_rate>40</update_rate>
                        <ray>
                                <scan>
                                <horizontal>
                                        <samples>720</samples>
                                        <resolution>1</resolution>
                                        <min_angle>-1.570796</min_angle>
                                        <max_angle>1.570796</max_angle>
                                </horizontal>
                                </scan>
                                <range>
                                <min>0.10</min>
                                <max>30.0</max>
                                <resolution>0.01</resolution>
                                </range>
                                <noise>
                                <type>gaussian</type>
                                <mean>0.0</mean>
                                <stddev>0.01</stddev>
                                </noise>
                        </ray>
                <plugin name="gazebo_ros_head_hokuyo_controller" filename="libgazebo_ros_laser.so">
                        <topicName>/p3at/laser/scan</topicName>
                        <frameName>laser_scan_link</frameName>
                </plugin>
        </sensor>
        </gazebo>


-->


</xacro:macro>
<xacro:p3at_front suffix="left" reflect="1"/>
<xacro:p3at_front suffix="right" reflect="-1"/>
<!-- <xacro:p3at_back suffix="left" reflect="1"/> -->
<!-- <xacro:p3at_back suffix="right" reflect="-1"/> -->
<xacro:p3at_gazebo_ext/>


<!-- VERTICAL + HORIZONTAL BARS -->
        <xacro:macro name="vertical_bar" params="src_frame name right">
                <link name="vertical_bar_${name}">
                        <inertial>
                                <mass value="0.5" />
                                <origin xyz="0 0 0" />
                                <inertia ixx="0.3"  ixy="0.3"  ixz="0.3" iyy="0.3"  iyz="0.3"  izz="0.3" />
                        </inertial>
                        <visual>
                                <geometry>
                                        <box size="${bar_width} ${bar_width} ${vertical_bar_height}"/>
                                </geometry>
                                <material name="gray"/>
                                <origin rpy="0 0 0" xyz="0 0 ${vertical_bar_height / 2}"/>
                        </visual>
                </link>
                <joint name="vertical_bar_${name}_joint" type="fixed">
                        <origin rpy="0 0 0" xyz="0 ${(base_width / 2 + bar_width / 2) * right} ${base_height}"/>
                        <parent link="${src_frame}"/>
                        <child link="vertical_bar_${name}"/>
                </joint>
                <gazebo reference="vertical_bar_${name}">
                        <material>Gazebo/Grey</material>
                </gazebo>
        </xacro:macro>

        <xacro:macro name="horizontal_bar" params="src_frame name length origin_x origin_y origin_z rpy">
                <link name="horizontal_bar_${name}">
                        <visual>
                                <geometry>
                                        <box size="${bar_width} ${length} ${bar_width}"/>
                                </geometry>
                                <material name="gray"/>
                                <origin rpy="0 0 0" xyz="0 0 0"/>
                        </visual>
                </link>
                <joint name="horizontal_bar_${name}_joint" type="fixed">
                        <origin rpy="${rpy}" xyz="${origin_x} ${origin_y} ${origin_z}"/>
                        <parent link="${src_frame}"/>
                        <child link="horizontal_bar_${name}"/>
                </joint>
                <gazebo reference="horizontal_bar_${name}">
                        <material>Gazebo/Grey</material>
                </gazebo>
        </xacro:macro>

        <xacro:macro name="horizontal_bar_with_object" params="src_frame bar_length bar_origin_x bar_origin_y bar_origin_z over object_joint_y right child_link rpy">
                <xacro:horizontal_bar src_frame="${src_frame}" name="${child_link}" length="${bar_length}" origin_x="${bar_origin_x}" origin_y="${bar_origin_y}" origin_z="${bar_origin_z}" rpy="${rpy}"/>
                <joint name="${child_link}_joint" type="fixed">
                        <origin rpy="0 0 0" xyz="${right * bar_width / 2} ${object_joint_y} ${over * bar_width / 2}"/>
                        <parent link="horizontal_bar_${child_link}"/>
                        <child link="${child_link}_link"/>
                </joint>
        </xacro:macro>

        <xacro:vertical_bar src_frame="base_link" name="dx" right="1"/>
        <xacro:vertical_bar src_frame="base_link" name="sx" right="-1"/>
        <xacro:include filename="$(find social_navigation)/defs/kinect.xacro" />

        <xacro:kinect name="kinect" frame_name="openni_camera"/>
        <xacro:horizontal_bar_with_object src_frame="base_link" bar_length="${base_width + bar_width}" bar_origin_x="0" bar_origin_y="0" bar_origin_z="${base_height + 3 * vertical_bar_height / 4}" rpy="0 0 0" over="0" right="1" object_joint_y="0" child_link="kinect"/>


</robot>
